{
  "cod": "200",
  "message": 0.0021,
  "cnt": 40,
  "list": [
    {
      "dt": 1506448800,
      "main": {
        "temp": 35.62,
        "temp_min": 31.87,
        "temp_max": 35.62,
        "pressure": 997.13,
        "sea_level": 1027.47,
        "grnd_level": 997.13,
        "humidity": 45,
        "temp_kf": 3.75
      },
      "weather": [
        {
          "id": 800,
          "main": "Clear",
          "description": "clear sky",
          "icon": "02d"
        }
      ],
      "clouds": {
        "all": 8
      },
      "wind": {
        "speed": 3.47,
        "deg": 236.502
      },
      "sys": {
        "pod": "d"
      },
      "dt_txt": "2017-09-26 18:00:00"
    },
    {
      "dt": 1506459600,
      "main": {
        "temp": 34.05,
        "temp_min": 31.55,
        "temp_max": 34.05,
        "pressure": 995.86,
        "sea_level": 1026.09,
        "grnd_level": 995.86,
        "humidity": 40,
        "temp_kf": 2.5
      },
      "weather": [
        {
          "id": 803,
          "main": "Clouds",
          "description": "broken clouds",
          "icon": "04d"
        }
      ],
      "clouds": {
        "all": 64
      },
      "wind": {
        "speed": 3.86,
        "deg": 235.003
      },
      "sys": {
        "pod": "d"
      },
      "dt_txt": "2017-09-26 21:00:00"
    },
    {
      "dt": 1506470400,
      "main": {
        "temp": 30.8,
        "temp_min": 29.55,
        "temp_max": 30.8,
        "pressure": 995.68,
        "sea_level": 1026.06,
        "grnd_level": 995.68,
        "humidity": 41,
        "temp_kf": 1.25
      },
      "weather": [
        {
          "id": 804,
          "main": "Clouds",
          "description": "overcast clouds",
          "icon": "04n"
        }
      ],
      "clouds": {
        "all": 92
      },
      "wind": {
        "speed": 3.32,
        "deg": 238
      },
      "sys": {
        "pod": "n"
      },
      "dt_txt": "2017-09-27 00:00:00"
    },
    {
      "dt": 1506481200,
      "main": {
        "temp": 27.73,
        "temp_min": 27.73,
        "temp_max": 27.73,
        "pressure": 996.14,
        "sea_level": 1026.68,
        "grnd_level": 996.14,
        "humidity": 44,
        "temp_kf": 0
      },
      "weather": [
        {
          "id": 804,
          "main": "Clouds",
          "description": "overcast clouds",
          "icon": "04n"
        }
      ],
      "clouds": {
        "all": 88
      },
      "wind": {
        "speed": 3.67,
        "deg": 254.5
      },
      "sys": {
        "pod": "n"
      },
      "dt_txt": "2017-09-27 03:00:00"
    },
    {
      "dt": 1506492000,
      "main": {
        "temp": 26.18,
        "temp_min": 26.18,
        "temp_max": 26.18,
        "pressure": 996.31,
        "sea_level": 1027.02,
        "grnd_level": 996.31,
        "humidity": 52,
        "temp_kf": 0
      },
      "weather": [
        {
          "id": 803,
          "main": "Clouds",
          "description": "broken clouds",
          "icon": "04n"
        }
      ],
      "clouds": {
        "all": 80
      },
      "wind": {
        "speed": 4.3,
        "deg": 314.501
      },
      "sys": {
        "pod": "n"
      },
      "dt_txt": "2017-09-27 06: 00:00"
    },
    {
      "dt": 1506502800,
      "main": {
        "temp": 21.88,
        "temp_min": 21.88,
        "temp_max": 21.88,
        "pressure": 997.89,
        "sea_level": 1028.47,
        "grnd_level": 997.89,
        "humidity": 78,
        "temp_kf": 0
      },
      "weather": [
        {
          "id": 801,
          "main": "Clouds",
          "description": "few clouds",
          "icon": "02n"
        }
      ],
      "clouds": {
        "all": 12
      },
      "wind": {
        "speed": 5.37,
        "deg": 342.501
      },
      "sys": {
        "pod": "n"
      },
      "dt_txt": "2017-09-27 09:00:00"
    },
    {
      "dt": 1506513600,
      "main": {
        "temp": 19.03,
        "temp_min": 19.03,
        "temp_max": 19.03,
        "pressure": 998.96,
        "sea_level": 1029.75,
        "grnd_level": 998.96,
        "humidity": 88,
        "temp_kf": 0
      },
      "weather": [
        {
          "id": 801,
          "main": "Clouds",
          "description": "few clouds",
          "icon": "02d"
        }
      ],
      "clouds": {
        "all": 12
      },
      "wind": {
        "speed": 5.06,
        "deg": 331.003
      },
      "sys": {
        "pod": "d"
      },
      "dt_txt": "2017-09-27 12:00:00"
    },
    {
      "dt": 1506524400,
      "main": {
        "temp": 21.55,
        "temp_min": 21.55,
        "temp_max": 21.55,
        "pressure": 999.77,
        "sea_level": 1030.47,
        "grnd_level": 999.77,
        "humidity": 67,
        "temp_kf": 0
      },
      "weather": [
        {
          "id": 500,
          "main": "Rain",
          "description": "light rain",
          "icon": "10d"
        }
      ],
      "clouds": {
        "all": 12
      },
      "wind": {
        "speed": 5.8,
        "deg": 327.503
      },
      "rain": {
        "3h": 0.015
      },
      "sys": {
        "pod": "d"
      },
      "dt_txt": "2017-09-27 15: 00:00"
    },
    {
      "dt": 1506535200,
      "main": {
        "temp": 24.19,
        "temp_min": 24.19,
        "temp_max": 24.19,
        "pressure": 999.54,
        "sea_level": 1030.24,
        "grnd_level": 999.54,
        "humidity": 52,
        "temp_kf": 0
      },
      "weather": [
        {
          "id": 800,
          "main": "Clear",
          "description": "clear sky",
          "icon": "01d"
        }
      ],
      "clouds": {
        "all": 0
      },
      "wind": {
        "speed": 6.57,
        "deg": 323.002
      },
      "rain": {
      },
      "sys": {
        "pod": "d"
      },
      "dt_txt": "2017-09-27 18:00:00"
    },
    {
      "dt": 1506546000,
      "main": {
        "temp": 22.89,
        "temp_min": 22.89,
        "temp_max": 22.89,
        "pressure": 999.68,
        "sea_level": 1030.34,
        "grnd_level": 999.68,
        "humidity": 44,
        "temp_kf": 0
      },
      "weather": [
        {
          "id": 500,
          "main": "Rain",
          "description": "light rain",
          "icon": "10d"
        }
      ],
      "clouds": {
        "all": 0
      },
      "wind": {
        "speed": 7.32,
        "deg": 325.501
      },
      "rain": {
        "3h": 0.005
      },
      "sys": {
        "pod": "d"
      },
      "dt_txt": "2017-09-27 21:00:00"
    },
    {
      "dt": 1506556800,
      "main": {
        "temp": 18.25,
        "temp_min": 18.25,
        "temp_max": 18.25,
        "pressure": 1001.09,
        "sea_level": 1031.87,
        "grnd_level": 1001.09,
        "humidity": 51,
        "temp_kf": 0
      },
      "weather": [
        {
          "id": 801,
          "main": "Clouds",
          "description": "few clouds",
          "icon": "02n"
        }
      ],
      "clouds": {
        "all": 20
      },
      "wind": {
        "speed": 6.66,
        "deg": 330.5
      },
      "rain": {
      },
      "sys": {
        "pod": "n"
      },
      "dt_txt": "2017-09-28 00:00:00"
    },
    {
      "dt": 1506567600,
      "main": {
        "temp": 15.45,
        "temp_min": 15.45,
        "temp_max": 15.45,
        "pressure": 1002.36,
        "sea_level": 1033.34,
        "grnd_level": 1002.36,
        "humidity": 69,
        "temp_kf": 0
      },
      "weather": [
        {
          "id": 800,
          "main": "Clear",
          "description": "clear sky",
          "icon": "02n"
        }
      ],
      "clouds": {
        "all": 8
      },
      "wind": {
        "speed": 5.33,
        "deg": 341.501
      },
      "rain": {
      },
      "sys": {
        "pod": "n"
      },
      "dt_txt": "2017-09-28 03:00:00"
    },
    {
      "dt": 1506578400,
      "main": {
        "temp": 13.79,
        "temp_min": 13.79,
        "temp_max": 13.79,
        "pressure": 1002.73,
        "sea_level": 1033.76,
        "grnd_level": 1002.73,
        "humidity": 75,
        "temp_kf": 0
      },
      "weather": [
        {
          "id": 800,
          "main": "Clear",
          "description": "clear sky",
          "icon": "01n"
        }
      ],
      "clouds": {
        "all": 0
      },
      "wind": {
        "speed": 4.11,
        "deg": 356
      },
      "rain": {
      },
      "sys": {
        "pod": "n"
      },
      "dt_txt": "2017-09-28 06: 00:00"
    },
    {
      "dt": 1506589200,
      "main": {
        "temp": 11.66,
        "temp_min": 11.66,
        "temp_max": 11.66,
        "pressure": 1003.06,
        "sea_level": 1034.35,
        "grnd_level": 1003.06,
        "humidity": 81,
        "temp_kf": 0
      },
      "weather": [
        {
          "id": 800,
          "main": "Clear",
          "description": "clear sky",
          "icon": "01n"
        }
      ],
      "clouds": {
        "all": 0
      },
      "wind": {
        "speed": 2.87,
        "deg": 12.5035
      },
      "rain": {
      },
      "sys": {
        "pod": "n"
      },
      "dt_txt": "2017-09-28 09:00:00"
    },
    {
      "dt": 1506600000,
      "main": {
        "temp": 9.63,
        "temp_min": 9.63,
        "temp_max": 9.63,
        "pressure": 1003.84,
        "sea_level": 1035.28,
        "grnd_level": 1003.84,
        "humidity": 89,
        "temp_kf": 0
      },
      "weather": [
        {
          "id": 800,
          "main": "Clear",
          "description": "clear sky",
          "icon": "01d"
        }
      ],
      "clouds": {
        "all": 0
      },
      "wind": {
        "speed": 1.32,
        "deg": 346.005
      },
      "rain": {
      },
      "sys": {
        "pod": "d"
      },
      "dt_txt": "2017-09-28 12:00:00"
    },
    {
      "dt": 1506610800,
      "main": {
        "temp": 17.77,
        "temp_min": 17.77,
        "temp_max": 17.77,
        "pressure": 1004.43,
        "sea_level": 1035.53,
        "grnd_level": 1004.43,
        "humidity": 58,
        "temp_kf": 0
      },
      "weather": [
        {
          "id": 800,
          "main": "Clear",
          "description": "clear sky",
          "icon": "01d"
        }
      ],
      "clouds": {
        "all": 0
      },
      "wind": {
        "speed": 1.97,
        "deg": 354.004
      },
      "rain": {
      },
      "sys": {
        "pod": "d"
      },
      "dt_txt": "2017-09-28 15:00:00"
    },
    {
      "dt": 1506621600,
      "main": {
        "temp": 21,
        "temp_min": 21,
        "temp_max": 21,
        "pressure": 1003.26,
        "sea_level": 1034.16,
        "grnd_level": 1003.26,
        "humidity": 54,
        "temp_kf": 0
      },
      "weather": [
        {
          "id": 800,
          "main": "Clear",
          "description": "clear sky",
          "icon": "01d"
        }
      ],
      "clouds": {
        "all": 0
      },
      "wind": {
        "speed": 3.01,
        "deg": 330.001
      },
      "rain": {
      },
      "sys": {
        "pod": "d"
      },
      "dt_txt": "2017-09-28 18:00:00"
    },
    {
      "dt": 1506632400,
      "main": {
        "temp": 22.16,
        "temp_min": 22.16,
        "temp_max": 22.16,
        "pressure": 1001.77,
        "sea_level": 1032.68,
        "grnd_level": 1001.77,
        "humidity": 44,
        "temp_kf": 0
      },
      "weather": [
        {
          "id": 800,
          "main": "Clear",
          "description": "clear sky",
          "icon": "01d"
        }
      ],
      "clouds": {
        "all": 0
      },
      "wind": {
        "speed": 4.7,
        "deg": 327.501
      },
      "rain": {
      },
      "sys": {
        "pod": "d"
      },
      "dt_txt": "2017-09-28 21:00:00"
    },
    {
      "dt": 1506643200,
      "main": {
        "temp": 17.99,
        "temp_min": 17.99,
        "temp_max": 17.99,
        "pressure": 1002.18,
        "sea_level": 1033.19,
        "grnd_level": 1002.18,
        "humidity": 46,
        "temp_kf": 0
      },
      "weather": [
        {
          "id": 800,
          "main": "Clear",
          "description": "clear sky",
          "icon": "01n"
        }
      ],
      "clouds": {
        "all": 0
      },
      "wind": {
        "speed": 4.86,
        "deg": 327.004
      },
      "rain": {
      },
      "sys": {
        "pod": "n"
      },
      "dt_txt": "2017-09-29 00:00:00"
    },
    {
      "dt": 1506654000,
      "main": {
        "temp": 13.51,
        "temp_min": 13.51,
        "temp_max": 13.51,
        "pressure": 1002.8,
        "sea_level": 1033.99,
        "grnd_level": 1002.8,
        "humidity": 70,
        "temp_kf": 0
      },
      "weather": [
        {
          "id": 800,
          "main": "Clear",
          "description": "clear sky",
          "icon": "01n"
        }
      ],
      "clouds": {
        "all": 0
      },
      "wind": {
        "speed": 3.22,
        "deg": 330.003
      },
      "rain": {
      },
      "sys": {
        "pod": "n"
      },
      "dt_txt": "2017-09-29 03:00:00"
    },
    {
      "dt": 1506664800,
      "main": {
        "temp": 10.17,
        "temp_min": 10.17,
        "temp_max": 10.17,
        "pressure": 1002.6,
        "sea_level": 1033.94,
        "grnd_level": 1002.6,
        "humidity": 90,
        "temp_kf": 0
      },
      "weather": [
        {
          "id": 800,
          "main": "Clear",
          "description": "clear sky",
          "icon": "01n"
        }
      ],
      "clouds": {
        "all": 0
      },
      "wind": {
        "speed": 1.21,
        "deg": 252.505
      },
      "rain": {
      },
      "sys": {
        "pod": "n"
      },
      "dt_txt": "2017-09-29 06:00:00"
    },
    {
      "dt": 1506675600,
      "main": {
        "temp": 9.75,
        "temp_min": 9.75,
        "temp_max": 9.75,
        "pressure": 1002.13,
        "sea_level": 1033.57,
        "grnd_level": 1002.13,
        "humidity": 86,
        "temp_kf": 0
      },
      "weather": [
        {
          "id": 800,
          "main": "Clear",
          "description": "clear sky",
          "icon": "01n"
        }
      ],
      "clouds": {
        "all": 0
      },
      "wind": {
        "speed": 2.72,
        "deg": 224
      },
      "rain": {
      },
      "sys": {
        "pod": "n"
      },
      "dt_txt": "2017-09-29 09: 00:00"
    },
    {
      "dt": 1506686400,
      "main": {
        "temp": 11.06,
        "temp_min": 11.06,
        "temp_max": 11.06,
        "pressure": 1002.74,
        "sea_level": 1034.23,
        "grnd_level": 1002.74,
        "humidity": 89,
        "temp_kf": 0
      },
      "weather": [
        {
          "id": 802,
          "main": "Clouds",
          "description": "scattered clouds",
          "icon": "03d"
        }
      ],
      "clouds": {
        "all": 32
      },
      "wind": {
        "speed": 3.67,
        "deg": 271.505
      },
      "rain": {
      },
      "sys": {
        "pod": "d"
      },
      "dt_txt": "2017-09-29 12:00:00"
    },
    {
      "dt": 1506697200,
      "main": {
        "temp": 19.97,
        "temp_min": 19.97,
        "temp_max": 19.97,
        "pressure": 1003.55,
        "sea_level": 1034.61,
        "grnd_level": 1003.55,
        "humidity": 59,
        "temp_kf": 0
      },
      "weather": [
        {
          "id": 800,
          "main": "Clear",
          "description": "clear sky",
          "icon": "01d"
        }
      ],
      "clouds": {
        "all": 0
      },
      "wind": {
        "speed": 3.25,
        "deg": 305.502
      },
      "rain": {
      },
      "sys": {
        "pod": "d"
      },
      "dt_txt": "2017-09-29 15:00:00"
    },
    {
      "dt": 1506708000,
      "main": {
        "temp": 21.19,
        "temp_min": 21.19,
        "temp_max": 21.19,
        "pressure": 1003.53,
        "sea_level": 1034.5,
        "grnd_level": 1003.53,
        "humidity": 46,
        "temp_kf": 0
      },
      "weather": [
        {
          "id": 800,
          "main": "Clear",
          "description": "clear sky",
          "icon": "01d"
        }
      ],
      "clouds": {
        "all": 0
      },
      "wind": {
        "speed": 7.37,
        "deg": 328.502
      },
      "rain": {
      },
      "sys": {
        "pod": "d"
      },
      "dt_txt": "2017-09-29 18:00:00"
    },
    {
      "dt": 1506718800,
      "main": {
        "temp": 20.49,
        "temp_min": 20.49,
        "temp_max": 20.49,
        "pressure": 1003.73,
        "sea_level": 1034.66,
        "grnd_level": 1003.73,
        "humidity": 45,
        "temp_kf": 0
      },
      "weather": [
        {
          "id": 800,
          "main": "Clear",
          "description": "clear sky",
          "icon": "01d"
        }
      ],
      "clouds": {
        "all": 0
      },
      "wind": {
        "speed": 6.92,
        "deg": 343.004
      },
      "rain": {
      },
      "sys": {
        "pod": "d"
      },
      "dt_txt": "2017-09-29 21:00:00"
    },
    {
      "dt": 1506729600,
      "main": {
        "temp": 17.22,
        "temp_min": 17.22,
        "temp_max": 17.22,
        "pressure": 1005.25,
        "sea_level": 1036.38,
        "grnd_level": 1005.25,
        "humidity": 51,
        "temp_kf": 0
      },
      "weather": [
        {
          "id": 800,
          "main": "Clear",
          "description": "clear sky",
          "icon": "02n"
        }
      ],
      "clouds": {
        "all": 8
      },
      "wind": {
        "speed": 5.21,
        "deg": 353.001
      },
      "rain": {
      },
      "sys": {
        "pod": "n"
      },
      "dt_txt": "2017-09-30 00:00:00"
    },
    {
      "dt": 1506740400,
      "main": {
        "temp": 13.23,
        "temp_min": 13.23,
        "temp_max": 13.23,
        "pressure": 1007.03,
        "sea_level": 1038.55,
        "grnd_level": 1007.03,
        "humidity": 65,
        "temp_kf": 0
      },
      "weather": [
        {
          "id": 800,
          "main": "Clear",
          "description": "clear sky",
          "icon": "01n"
        }
      ],
      "clouds": {
        "all": 0
      },
      "wind": {
        "speed": 3.52,
        "deg": 4.5025
      },
      "rain": {
      },
      "sys": {
        "pod": "n"
      },
      "dt_txt": "2017-09-30 03: 00:00"
    },
    {
      "dt": 1506751200,
      "main": {
        "temp": 10.96,
        "temp_min": 10.96,
        "temp_max": 10.96,
        "pressure": 1008.36,
        "sea_level": 1040.16,
        "grnd_level": 1008.36,
        "humidity": 75,
        "temp_kf": 0
      },
      "weather": [
        {
          "id": 800,
          "main": "Clear",
          "description": "clear sky",
          "icon": "01n"
        }
      ],
      "clouds": {
        "all": 0
      },
      "wind": {
        "speed": 4.42,
        "deg": 42.0005
      },
      "rain": {
      },
      "sys": {
        "pod": "n"
      },
      "dt_txt": "2017-09-30 06:00:00"
    },
    {
      "dt": 1506762000,
      "main": {
        "temp": 8.77,
        "temp_min": 8.77,
        "temp_max": 8.77,
        "pressure": 1009.55,
        "sea_level": 1041.41,
        "grnd_level": 1009.55,
        "humidity": 94,
        "temp_kf": 0
      },
      "weather": [
        {
          "id": 800,
          "main": "Clear",
          "description": "clear sky",
          "icon": "01n"
        }
      ],
      "clouds": {
        "all": 0
      },
      "wind": {
        "speed": 3.91,
        "deg": 40.0024
      },
      "rain": {
      },
      "sys": {
        "pod": "n"
      },
      "dt_txt": "2017-09-30 09:00:00"
    },
    {
      "dt": 1506772800,
      "main": {
        "temp": 7.74,
        "temp_min": 7.74,
        "temp_max": 7.74,
        "pressure": 1010.86,
        "sea_level": 1042.95,
        "grnd_level": 1010.86,
        "humidity": 95,
        "temp_kf": 0
      },
      "weather": [
        {
          "id": 800,
          "main": "Clear",
          "description": "clear sky",
          "icon": "01d"
        }
      ],
      "clouds": {
        "all": 0
      },
      "wind": {
        "speed": 3.87,
        "deg": 43.5049
      },
      "rain": {
      },
      "sys": {
        "pod": "d"
      },
      "dt_txt": "2017-09-30 12:00:00"
    },
    {
      "dt": 1506783600,
      "main": {
        "temp": 15.36,
        "temp_min": 15.36,
        "temp_max": 15.36,
        "pressure": 1011.87,
        "sea_level": 1043.32,
        "grnd_level": 1011.87,
        "humidity": 66,
        "temp_kf": 0
      },
      "weather": [
        {
          "id": 800,
          "main": "Clear",
          "description": "clear sky",
          "icon": "01d"
        }
      ],
      "clouds": {
        "all": 0
      },
      "wind": {
        "speed": 3.77,
        "deg": 64.5002
      },
      "rain": {
      },
      "sys": {
        "pod": "d"
      },
      "dt_txt": "2017-09-30 15:00:00"
    },
    {
      "dt": 1506794400,
      "main": {
        "temp": 19.78,
        "temp_min": 19.78,
        "temp_max": 19.78,
        "pressure": 1010.95,
        "sea_level": 1042.19,
        "grnd_level": 1010.95,
        "humidity": 55,
        "temp_kf": 0
      },
      "weather": [
        {
          "id": 800,
          "main": "Clear",
          "description": "clear sky",
          "icon": "01d"
        }
      ],
      "clouds": {
        "all": 0
      },
      "wind": {
        "speed": 3.41,
        "deg": 84.0013
      },
      "rain": {
      },
      "sys": {
        "pod": "d"
      },
      "dt_txt": "2017-09-30 18:00:00"
    },
    {
      "dt": 1506805200,
      "main": {
        "temp": 20.78,
        "temp_min": 20.78,
        "temp_max": 20.78,
        "pressure": 1009.34,
        "sea_level": 1040.48,
        "grnd_level": 1009.34,
        "humidity": 44,
        "temp_kf": 0
      },
      "weather": [
        {
          "id": 800,
          "main": "Clear",
          "description": "clear sky",
          "icon": "01d"
        }
      ],
      "clouds": {
        "all": 0
      },
      "wind": {
        "speed": 3.66,
        "deg": 87.0006
      },
      "rain": {
      },
      "sys": {
        "pod": "d"
      },
      "dt_txt": "2017-09-30 21:00:00"
    },
    {
      "dt": 1506816000,
      "main": {
        "temp": 16.34,
        "temp_min": 16.34,
        "temp_max": 16.34,
        "pressure": 1009.22,
        "sea_level": 1040.59,
        "grnd_level": 1009.22,
        "humidity": 47,
        "temp_kf": 0
      },
      "weather": [
        {
          "id": 800,
          "main": "Clear",
          "description": "clear sky",
          "icon": "01n"
        }
      ],
      "clouds": {
        "all": 0
      },
      "wind": {
        "speed": 2.97,
        "deg": 89.0016
      },
      "rain": {
      },
      "sys": {
        "pod": "n"
      },
      "dt_txt": "2017-10-01 00:00:00"
    },
    {
      "dt": 1506826800,
      "main": {
        "temp": 12.39,
        "temp_min": 12.39,
        "temp_max": 12.39,
        "pressure": 1010.15,
        "sea_level": 1041.75,
        "grnd_level": 1010.15,
        "humidity": 54,
        "temp_kf": 0
      },
      "weather": [
        {
          "id": 800,
          "main": "Clear",
          "description": "clear sky",
          "icon": "01n"
        }
      ],
      "clouds": {
        "all": 0
      },
      "wind": {
        "speed": 4.56,
        "deg": 110
      },
      "rain": {
      },
      "sys": {
        "pod": "n"
      },
      "dt_txt": "2017-10-01 03:00:00"
    },
    {
      "dt": 1506837600,
      "main": {
        "temp": 10.1,
        "temp_min": 10.1,
        "temp_max": 10.1,
        "pressure": 1009.68,
        "sea_level": 1041.46,
        "grnd_level": 1009.68,
        "humidity": 64,
        "temp_kf": 0
      },
      "weather": [
        {
          "id": 800,
          "main": "Clear",
          "description": "clear sky",
          "icon": "01n"
        }
      ],
      "clouds": {
        "all": 0
      },
      "wind": {
        "speed": 4.63,
        "deg": 110.5
      },
      "rain": {
      },
      "sys": {
        "pod": "n"
      },
      "dt_txt": "2017-10-01 06: 00:00"
    },
    {
      "dt": 1506848400,
      "main": {
        "temp": 7.89,
        "temp_min": 7.89,
        "temp_max": 7.89,
        "pressure": 1009.52,
        "sea_level": 1041.45,
        "grnd_level": 1009.52,
        "humidity": 76,
        "temp_kf": 0
      },
      "weather": [
        {
          "id": 800,
          "main": "Clear",
          "description": "clear sky",
          "icon": "01n"
        }
      ],
      "clouds": {
        "all": 0
      },
      "wind": {
        "speed": 3.54,
        "deg": 114.004
      },
      "rain": {
      },
      "sys": {
        "pod": "n"
      },
      "dt_txt": "2017-10-01 09:00:00"
    },
    {
      "dt": 1506859200,
      "main": {
        "temp": 6.18,
        "temp_min": 6.18,
        "temp_max": 6.18,
        "pressure": 1009.9,
        "sea_level": 1041.97,
        "grnd_level": 1009.9,
        "humidity": 85,
        "temp_kf": 0
      },
      "weather": [
        {
          "id": 800,
          "main": "Clear",
          "description": "clear sky",
          "icon": "01d"
        }
      ],
      "clouds": {
        "all": 0
      },
      "wind": {
        "speed": 2.16,
        "deg": 100.505
      },
      "rain": {
      },
      "sys": {
        "pod": "d"
      },
      "dt_txt": "2017-10-01 12:00:00"
    },
    {
      "dt": 1506870000,
      "main": {
        "temp": 16.89,
        "temp_min": 16.89,
        "temp_max": 16.89,
        "pressure": 1009.96,
        "sea_level": 1041.37,
        "grnd_level": 1009.96,
        "humidity": 54,
        "temp_kf": 0
      },
      "weather": [
        {
          "id": 800,
          "main": "Clear",
          "description": "clear sky",
          "icon": "01d"
        }
      ],
      "clouds": {
        "all": 0
      },
      "wind": {
        "speed": 3.09,
        "deg": 130
      },
      "rain": {
      },
      "sys": {
        "pod": "d"
      },
      "dt_txt": "2017-10-01 15: 00:00"
    }
  ],
  "city": {
    "id": 4927854,
    "name": "Warsaw",
    "coord": {
      "lat": 41.2381,
      "lon": -85.8531
    },
    "country": "US"
  }
}